{
	"info": {
		"_postman_id": "30dc9280-e82b-4613-8990-eb02be30efbe",
		"name": "NewTool",
		"schema": "https://schema.getpostman.com/json/collection/v2.1.0/collection.json"
	},
	"item": [
		{
			"name": "http://toolslist.safebear.co.uk:8080/tools",
			"event": [
				{
					"listen": "test",
					"script": {
						"id": "70e5f790-82d6-4c9c-8509-546400406785",
						"type": "text/javascript",
						"exec": [
							"pm.test(\"Status code is 200\", function () {",
							"    pm.response.to.have.status(200);",
							"});",
							"",
							"",
							"pm.environment.get(\"name\");",
							"",
							"var namefield = pm.environment.get(\"name\");",
							"",
							"",
							"pm.test(\"Body matches string\", function () {",
							"    pm.expect(pm.response.text()).to.include(namefield);",
							"});"
						]
					}
				}
			],
			"request": {
				"method": "POST",
				"header": [
					{
						"key": "accept",
						"value": "text/html,application/xhtml+xml,application/xml;q=0.9,image/webp,image/apng,*/*;q=0.8",
						"disabled": true
					},
					{
						"key": "accept-encoding",
						"value": "gzip, deflate",
						"disabled": true
					},
					{
						"key": "accept-language",
						"value": "en-GB,en-US;q=0.9,en;q=0.8",
						"disabled": true
					},
					{
						"key": "cache-control",
						"value": "max-age=0",
						"disabled": true
					},
					{
						"key": "content-length",
						"value": "56",
						"disabled": true
					},
					{
						"key": "content-type",
						"value": "application/x-www-form-urlencoded"
					},
					{
						"key": "cookie",
						"value": "JSESSIONID=FD4D2A1F1A62C23DE1017C1D873BF171",
						"disabled": true
					},
					{
						"key": "host",
						"value": "toolslist.safebear.co.uk:8080",
						"disabled": true
					},
					{
						"key": "origin",
						"value": "http://toolslist.safebear.co.uk:8080",
						"disabled": true
					},
					{
						"key": "proxy-connection",
						"value": "keep-alive",
						"disabled": true
					},
					{
						"key": "referer",
						"value": "http://toolslist.safebear.co.uk:8080/jsp/new-tool.jsp?",
						"disabled": true
					},
					{
						"key": "upgrade-insecure-requests",
						"value": "1",
						"disabled": true
					},
					{
						"key": "user-agent",
						"value": "Mozilla/5.0 (Windows NT 10.0; Win64; x64) AppleWebKit/537.36 (KHTML, like Gecko) Chrome/68.0.3440.106 Safari/537.36",
						"disabled": true
					}
				],
				"body": {
					"mode": "raw",
					"raw": "action=add&idTool=&name={{name}}&use={{use}}&website={{website}}"
				},
				"url": {
					"raw": "http://toolslist.safebear.co.uk:8080/tools",
					"protocol": "http",
					"host": [
						"toolslist",
						"safebear",
						"co",
						"uk"
					],
					"port": "8080",
					"path": [
						"tools"
					]
				}
			},
			"response": []
		},
		{
			"name": "http://toolslist.safebear.co.uk:8080/tools",
			"event": [
				{
					"listen": "test",
					"script": {
						"id": "267417d1-b8ff-4ba9-b76e-24ef340ca5a9",
						"type": "text/javascript",
						"exec": [
							"pm.test(\"Status code is 200\", function () {",
							"    pm.response.to.have.status(200);",
							"});",
							"",
							"var namefield = pm.environment.get(\"name\");",
							"",
							"pm.test(\"Body matches string\", function () {",
							"    pm.expect(pm.response.text()).to.include(namefield);",
							"});",
							"",
							""
						]
					}
				}
			],
			"request": {
				"method": "POST",
				"header": [
					{
						"key": "accept",
						"value": "text/html,application/xhtml+xml,application/xml;q=0.9,image/webp,image/apng,*/*;q=0.8",
						"disabled": true
					},
					{
						"key": "accept-encoding",
						"value": "gzip, deflate",
						"disabled": true
					},
					{
						"key": "accept-language",
						"value": "en-GB,en-US;q=0.9,en;q=0.8",
						"disabled": true
					},
					{
						"key": "cache-control",
						"value": "max-age=0",
						"disabled": true
					},
					{
						"key": "content-length",
						"value": "56",
						"disabled": true
					},
					{
						"key": "content-type",
						"value": "application/x-www-form-urlencoded"
					},
					{
						"key": "cookie",
						"value": "__tawkuuid=e::safebear.co.uk::37HapOEsegZjfTFG59SJYhvjhn9UJVpXqqzvBkMOv6kHA7I3lwflLyLXQ4xlhGRF::2; JSESSIONID=BFE09B18AB1691A2939A19CF30EBAF4A",
						"disabled": true
					},
					{
						"key": "host",
						"value": "toolslist.safebear.co.uk:8080",
						"disabled": true
					},
					{
						"key": "origin",
						"value": "http://toolslist.safebear.co.uk:8080",
						"disabled": true
					},
					{
						"key": "proxy-connection",
						"value": "keep-alive",
						"disabled": true
					},
					{
						"key": "referer",
						"value": "http://toolslist.safebear.co.uk:8080/jsp/new-tool.jsp?",
						"disabled": true
					},
					{
						"key": "upgrade-insecure-requests",
						"value": "1",
						"disabled": true
					},
					{
						"key": "user-agent",
						"value": "Mozilla/5.0 (Windows NT 10.0; Win64; x64) AppleWebKit/537.36 (KHTML, like Gecko) Chrome/69.0.3497.100 Safari/537.36",
						"disabled": true
					}
				],
				"body": {
					"mode": "raw",
					"raw": "action=add&idTool=&name={{name}}&use={{use}}&website={{website}}"
				},
				"url": {
					"raw": "http://toolslist.safebear.co.uk:8080/tools",
					"protocol": "http",
					"host": [
						"toolslist",
						"safebear",
						"co",
						"uk"
					],
					"port": "8080",
					"path": [
						"tools"
					]
				}
			},
			"response": []
		}
	]
}